<?xml version="1.0" encoding="utf-8"?>
<!-- Generator: Adobe Illustrator 23.0.3, SVG Export Plug-In . SVG Version: 6.00 Build 0)  -->
<svg version="1.1" id="Слой_1" xmlns="http://www.w3.org/2000/svg" xmlns:xlink="http://www.w3.org/1999/xlink" x="0px" y="0px"
	 viewBox="0 0 100 125" style="enable-background:new 0 0 100 125;" xml:space="preserve">
<style type="text/css">
	.st0{fill:#297E83;}
</style>
<title>Creator Icon_22</title>
<path d="M82.5,74.5H79V48c0-2.1-1.7-3.7-3.7-3.7H60.9c-0.6,0-1,0.4-1,1s0.4,1,1,1h14.3c1,0,1.7,0.8,1.7,1.7v26.5H56.4
	c-0.5,0-0.9,0.3-1,0.8l-0.6,2.5h-9.7l-0.6-2.5c-0.1-0.4-0.5-0.8-1-0.8H23V48c0-1,0.8-1.7,1.7-1.7h13.9c0.6,0,1-0.4,1-1s-0.4-1-1-1
	H24.7C22.6,44.3,21,46,21,48v26.5h-3.5c-0.6,0-1,0.4-1,1l0,0V78c0,4.5,3.7,8.2,8.2,8.2h50.7c4.5,0,8.2-3.7,8.2-8.2v-2.5
	C83.5,75,83.1,74.5,82.5,74.5L82.5,74.5z M81.5,78.1c0,3.4-2.8,6.2-6.2,6.2H24.6c-3.4,0-6.2-2.8-6.2-6.2v-1.5h24.3l0.6,2.5
	c0.1,0.4,0.5,0.8,1,0.8h11.2c0.5,0,0.9-0.3,1-0.8l0.6-2.5h24.3v1.5H81.5z"/>
<path class="st0" d="M62.7,36.2c0.6,2,2.6,3.2,4.6,2.6s3.2-2.6,2.6-4.6s-2.6-3.2-4.6-2.6C64,32,63,32.9,62.7,34.2H56
	c-0.6,0-1,0.4-1,1l0,0v28.7h-4V21.1c2-0.6,3.2-2.6,2.6-4.6S51,13.3,49,13.9c-2,0.6-3.2,2.6-2.6,4.6c0.4,1.3,1.3,2.3,2.6,2.6v42.8h-4
	V28.6c0-0.6-0.4-1-1-1l0,0h-6.7c-0.6-2-2.6-3.2-4.6-2.6s-3.2,2.6-2.6,4.6s2.6,3.2,4.6,2.6c1.3-0.4,2.3-1.3,2.6-2.6H43v34.3h-4.3
	c-0.6,0-1,0.4-1,1s0.4,1,1,1h24.5c0.6,0,1-0.4,1-1s-0.4-1-1-1H57V36.2H62.7z M66.3,33.5c1,0,1.8,0.8,1.8,1.8S67.3,37,66.3,37
	s-1.8-0.8-1.8-1.8l0,0C64.6,34.3,65.3,33.5,66.3,33.5z M48.2,17.5c0-1,0.8-1.8,1.8-1.8s1.8,0.8,1.8,1.8S51,19.3,50,19.3l0,0
	C49,19.3,48.2,18.5,48.2,17.5z M33.6,30.4c-1,0-1.8-0.8-1.8-1.8s0.8-1.8,1.8-1.8s1.8,0.8,1.8,1.8l0,0C35.4,29.6,34.6,30.4,33.6,30.4
	z"/>
</svg>
